Data Wrangling 1 — ExPra Winter 2025
…
This includes many packages that we won’t be using today, but which will be useful in other parts of the course (e.g., we will use ggplot2 for Data Visualisation).

Setup Part 2: Check dplyr Loads#

Now, we can test that the package we will be using today actually loads. You should be able to run this code without any errors:

library(dplyr)

Setup Part 3: Check the Data Loads#

Finally, check that you can access the dataset we’ll be using in this session. The starwars dataset is a dataset built into dplyr that contains details of characters from the Star Wars films:

print(starwars)

# A tibble: 87 × 14
   name     height  mass hair_color skin_color eye_color birth_year sex   gender
   <chr>     <int> <dbl> <chr>      <chr>      <chr>          <dbl> <chr> <chr> 
 1 Luke Sk…    172    77 blond      fair       blue            19   male  mascu…
 2 C-3PO       167    75 NA         gold       yellow         112   none  mascu…
 3 R2-D2        96    32 NA         white, bl… red             33   none  mascu…
 4 Darth V…    202   136 none       white      yellow          41.9 male  mascu…
 5 Leia Or…    150    49 brown      light      brown           19   fema… femin…
 6 Owen La…    178   120 brown, gr… light      blue            52   male  mascu…
 7 Beru Wh…    165    75 brown      light      blue            47   fema… femin…
 8 R5-D4        97    32 NA         white, red red             NA   none  mascu…
 9 Biggs D…    183    84 black      light      brown           24   male  mascu…
10 Obi-Wan…    182    77 auburn, w… fair       blue-gray       57   male  mascu…
# ℹ 77 more rows
# ℹ 5 more variables: homeworld <chr>, species <chr>, films <list>,
#   vehicles <list>, starships <list>
This snapshot shows an example of tidy data - a philosophy of organising data such that each observation (character) has a single row, with all variables tied to that character as a single column.

Now that we’re all set up, let’s start a-wrangling…

arrange()#

We can use the arrange() function to sort by variables in the dataframe.

Numeric Variables#

For example, we can arrange all characters in order of height (shortest to tallest) like so:

arrange(starwars, height)

# A tibble: 87 × 14
   name     height  mass hair_color skin_color eye_color birth_year sex   gender
   <chr>     <int> <dbl> <chr>      <chr>      <chr>          <dbl> <chr> <chr> 
 1 Yoda         66    17 white      green      brown            896 male  mascu…
 2 Ratts T…     79    15 none       grey, blue unknown           NA male  mascu…
 3 Wicket …     88    20 brown      brown      brown              8 male  mascu…
 4 Dud Bolt     94    45 none       blue, grey yellow            NA male  mascu…
 5 R2-D2        96    32 NA         white, bl… red               33 none  mascu…
 6 R4-P17       96    NA none       silver, r… red, blue         NA none  femin…
 7 R5-D4        97    32 NA         white, red red               NA none  mascu…
 8 Sebulba     112    40 none       grey, red  orange            NA male  mascu…
 9 Gasgano     122    NA none       white, bl… black             NA male  mascu…
10 Watto       137    NA black      blue, grey yellow            NA male  mascu…
# ℹ 77 more rows
# ℹ 5 more variables: homeworld <chr>, species <chr>, films <list>,
#   vehicles <list>, starships <list>

The arrange() function, like most dplyr verb functions, takes the dataframe (starwars) as its first argument, and the variable names (e.g., height) as subsequent arguments.

In height order, we can see that Yoda is the shortest character, at 66 cm, with podracer Ratts Tyerell next shortest, at 79 cm.

We can also arrange the dataframe in descending order, with the desc() function.

arrange(starwars, desc(height))

# A tibble: 87 × 14
   name     height  mass hair_color skin_color eye_color birth_year sex   gender
   <chr>     <int> <dbl> <chr>      <chr>      <chr>          <dbl> <chr> <chr> 
 1 Yarael …    264    NA none       white      yellow          NA   male  mascu…
 2 Tarfful     234   136 brown      brown      blue            NA   male  mascu…
 3 Lama Su     229    88 none       grey       black           NA   male  mascu…
 4 Chewbac…    228   112 brown      unknown    blue           200   male  mascu…
 5 Roos Ta…    224    82 none       grey       orange          NA   male  mascu…
 6 Grievous    216   159 none       brown, wh… green, y…       NA   male  mascu…
 7 Taun We     213    NA none       grey       black           NA   fema… femin…
 8 Rugor N…    206    NA none       green      orange          NA   male  mascu…
 9 Tion Me…    206    80 none       grey       black           NA   male  mascu…
10 Darth V…    202   136 none       white      yellow          41.9 male  mascu…
# ℹ 77 more rows
# ℹ 5 more variables: homeworld <chr>, species <chr>, films <list>,
#   vehicles <list>, starships <list>

This shows us that long-necked Jedi, Yarael Poof, is the tallest character, at 264 cm.

Character Variables#

As well as sorting by numeric variables, we can also sort by character variables. For instance, we can sort by hair colour. If we do this we will sort hair alphabetically, from “auburn” to “white”.

arrange(starwars, hair_color)

# A tibble: 87 × 14
   name     height  mass hair_color skin_color eye_color birth_year sex   gender
   <chr>     <int> <dbl> <chr>      <chr>      <chr>          <dbl> <chr> <chr> 
 1 Mon Mot…    150  NA   auburn     fair       blue            48   fema… femin…
 2 Wilhuff…    180  NA   auburn, g… fair       blue            64   male  mascu…
 3 Obi-Wan…    182  77   auburn, w… fair       blue-gray       57   male  mascu…
 4 Biggs D…    183  84   black      light      brown           24   male  mascu…
 5 Boba Fe…    183  78.2 black      fair       brown           31.5 male  mascu…
 6 Lando C…    177  79   black      dark       brown           31   male  mascu…
 7 Watto       137  NA   black      blue, grey yellow          NA   male  mascu…
 8 Quarsh …    183  NA   black      dark       brown           62   male  mascu…
 9 Shmi Sk…    163  NA   black      fair       brown           72   fema… femin…
10 Eeth Ko…    171  NA   black      brown      brown           NA   male  mascu…
# ℹ 77 more rows
# ℹ 5 more variables: homeworld <chr>, species <chr>, films <list>,
#   vehicles <list>, starships <list>

Combining Statements#

Finally, we can sort by multiple variables at once with comma-separated statements. For instance, we may want to sort by hair colour alphabetically, and then by height descendingly:

arrange(starwars, hair_color, desc(height))

# A tibble: 87 × 14
   name     height  mass hair_color skin_color eye_color birth_year sex   gender
   <chr>     <int> <dbl> <chr>      <chr>      <chr>          <dbl> <chr> <chr> 
 1 Mon Mot…    150  NA   auburn     fair       blue            48   fema… femin…
 2 Wilhuff…    180  NA   auburn, g… fair       blue            64   male  mascu…
 3 Obi-Wan…    182  77   auburn, w… fair       blue-gray       57   male  mascu…
 4 Bail Pr…    191  NA   black      tan        brown           67   male  mascu…
 5 Gregar …    185  85   black      dark       brown           NA   NA    NA    
 6 Biggs D…    183  84   black      light      brown           24   male  mascu…
 7 Boba Fe…    183  78.2 black      fair       brown           31.5 male  mascu…
 8 Quarsh …    183  NA   black      dark       brown           62   male  mascu…
 9 Jango F…    183  79   black      tan        brown           66   male  mascu…
10 Lando C…    177  79   black      dark       brown           31   male  mascu…
# ℹ 77 more rows
# ℹ 5 more variables: homeworld <chr>, species <chr>, films <list>,
#   vehicles <list>, starships <list>
…
via giphy

To find all characters that are not Darth Vader, we can use !=, which stands for “does not equal.” This returns all rows in the dataframe where the name column does not have the value "Darth Vader".

filter(starwars, name!="Darth Vader")

# A tibble: 86 × 14
   name     height  mass hair_color skin_color eye_color birth_year sex   gender
   <chr>     <int> <dbl> <chr>      <chr>      <chr>          <dbl> <chr> <chr> 
 1 Luke Sk…    172    77 blond      fair       blue            19   male  mascu…
 2 C-3PO       167    75 NA         gold       yellow         112   none  mascu…
 3 R2-D2        96    32 NA         white, bl… red             33   none  mascu…
 4 Leia Or…    150    49 brown      light      brown           19   fema… femin…
 5 Owen La…    178   120 brown, gr… light      blue            52   male  mascu…
 6 Beru Wh…    165    75 brown      light      blue            47   fema… femin…
 7 R5-D4        97    32 NA         white, red red             NA   none  mascu…
 8 Biggs D…    183    84 black      light      brown           24   male  mascu…
 9 Obi-Wan…    182    77 auburn, w… fair       blue-gray       57   male  mascu…
10 Anakin …    188    84 blond      fair       blue            41.9 male  mascu…
# ℹ 76 more rows
# ℹ 5 more variables: homeworld <chr>, species <chr>, films <list>,
#   vehicles <list>, starships <list>
…
# A tibble: 3 × 14
  name  height  mass hair_color skin_color  eye_color birth_year sex   gender   
  <chr>  <int> <dbl> <chr>      <chr>       <chr>          <dbl> <chr> <chr>    
1 C-3PO    167    75 NA         gold        yellow           112 none  masculine
2 R2-D2     96    32 NA         white, blue red               33 none  masculine
3 IG-88    200   140 none       metal       red               15 none  masculine
# ℹ 5 more variables: homeworld <chr>, species <chr>, films <list>,
#   vehicles <list>, starships <list>

As with == and !=, we can invert %in% to only include characters who are not in the list. To do this, we put an exclamation mark (!) at the start of the statement:

filter(starwars, !(name %in% cool_droids))

# A tibble: 84 × 14
   name     height  mass hair_color skin_color eye_color birth_year sex   gender
   <chr>     <int> <dbl> <chr>      <chr>      <chr>          <dbl> <chr> <chr> 
 1 Luke Sk…    172    77 blond      fair       blue            19   male  mascu…
 2 Darth V…    202   136 none       white      yellow          41.9 male  mascu…
 3 Leia Or…    150    49 brown      light      brown           19   fema… femin…
 4 Owen La…    178   120 brown, gr… light      blue            52   male  mascu…
 5 Beru Wh…    165    75 brown      light      blue            47   fema… femin…
 6 R5-D4        97    32 NA         white, red red             NA   none  mascu…
 7 Biggs D…    183    84 black      light      brown           24   male  mascu…
 8 Obi-Wan…    182    77 auburn, w… fair       blue-gray       57   male  mascu…
 9 Anakin …    188    84 blond      fair       blue            41.9 male  mascu…
10 Wilhuff…    180    NA auburn, g… fair       blue            64   male  mascu…
# ℹ 74 more rows
# ℹ 5 more variables: homeworld <chr>, species <chr>, films <list>,
#   vehicles <list>, starships <list>
…
Exclude any characters who come from Tatooine, Zolan, or Naboo.

Filter to only include female characters who are between 160 and 200 cm.

select()#

The select() function is useful for subsetting columns.

Selecting Specific Columns#

For instance, if we only want to select the name and height columns, we can do this like so:

select(starwars, name, height)

# A tibble: 87 × 2
   name               height
   <chr>               <int>
 1 Luke Skywalker        172
 2 C-3PO                 167
 3 R2-D2                  96
 4 Darth Vader           202
 5 Leia Organa           150
 6 Owen Lars             178
 7 Beru Whitesun Lars    165
 8 R5-D4                  97
 9 Biggs Darklighter     183
10 Obi-Wan Kenobi        182
# ℹ 77 more rows

To include all columns except a given column, we can use the exclamation mark (!) or a minus (-).

select(starwars, !height)

# A tibble: 87 × 13
   name   mass hair_color skin_color eye_color birth_year sex   gender homeworld
   <chr> <dbl> <chr>      <chr>      <chr>          <dbl> <chr> <chr>  <chr>    
 1 Luke…    77 blond      fair       blue            19   male  mascu… Tatooine 
 2 C-3PO    75 NA         gold       yellow         112   none  mascu… Tatooine 
 3 R2-D2    32 NA         white, bl… red             33   none  mascu… Naboo    
 4 Dart…   136 none       white      yellow          41.9 male  mascu… Tatooine 
 5 Leia…    49 brown      light      brown           19   fema… femin… Alderaan 
 6 Owen…   120 brown, gr… light      blue            52   male  mascu… Tatooine 
 7 Beru…    75 brown      light      blue            47   fema… femin… Tatooine 
 8 R5-D4    32 NA         white, red red             NA   none  mascu… Tatooine 
 9 Bigg…    84 black      light      brown           24   male  mascu… Tatooine 
10 Obi-…    77 auburn, w… fair       blue-gray       57   male  mascu… Stewjon  
# ℹ 77 more rows
# ℹ 4 more variables: species <chr>, films <list>, vehicles <list>,
#   starships <list>

Reordering Columns#

When we use select(), we can also specify the order of columns. For instance, we can select the columns name, gender, and homeworld in a new order.

select(starwars, homeworld, name, gender)

# A tibble: 87 × 3
   homeworld name               gender   
   <chr>     <chr>              <chr>    
 1 Tatooine  Luke Skywalker     masculine
 2 Tatooine  C-3PO              masculine
 3 Naboo     R2-D2              masculine
 4 Tatooine  Darth Vader        masculine
 5 Alderaan  Leia Organa        feminine 
 6 Tatooine  Owen Lars          masculine
 7 Tatooine  Beru Whitesun Lars feminine 
 8 Tatooine  R5-D4              masculine
 9 Tatooine  Biggs Darklighter  masculine
10 Stewjon   Obi-Wan Kenobi     masculine
# ℹ 77 more rows

Selecting a Range of Columns#

We can say that we want to select variables in a range (e.g., from name until hair_color) with a colon (:).

select(starwars, name:hair_color)

# A tibble: 87 × 4
   name               height  mass hair_color   
   <chr>               <int> <dbl> <chr>        
 1 Luke Skywalker        172    77 blond        
 2 C-3PO                 167    75 NA           
 3 R2-D2                  96    32 NA           
 4 Darth Vader           202   136 none         
 5 Leia Organa           150    49 brown        
 6 Owen Lars             178   120 brown, grey  
 7 Beru Whitesun Lars    165    75 brown        
 8 R5-D4                  97    32 NA           
 9 Biggs Darklighter     183    84 black        
10 Obi-Wan Kenobi        182    77 auburn, white
# ℹ 77 more rows

Selection Helpers#

The tidyverse also supports a range of selection helpers. For example, we can use everything() to select everything not already selected. This can be useful if we want to set a new first column (e.g., homeworld), but keep the other columns in their existing order:

select(starwars, homeworld, everything())

# A tibble: 87 × 14
   homeworld name  height  mass hair_color skin_color eye_color birth_year sex  
   <chr>     <chr>  <int> <dbl> <chr>      <chr>      <chr>          <dbl> <chr>
 1 Tatooine  Luke…    172    77 blond      fair       blue            19   male 
 2 Tatooine  C-3PO    167    75 NA         gold       yellow         112   none 
 3 Naboo     R2-D2     96    32 NA         white, bl… red             33   none 
 4 Tatooine  Dart…    202   136 none       white      yellow          41.9 male 
 5 Alderaan  Leia…    150    49 brown      light      brown           19   fema…
 6 Tatooine  Owen…    178   120 brown, gr… light      blue            52   male 
 7 Tatooine  Beru…    165    75 brown      light      blue            47   fema…
 8 Tatooine  R5-D4     97    32 NA         white, red red             NA   none 
 9 Tatooine  Bigg…    183    84 black      light      brown           24   male 
10 Stewjon   Obi-…    182    77 auburn, w… fair       blue-gray       57   male 
# ℹ 77 more rows
# ℹ 5 more variables: gender <chr>, species <chr>, films <list>,
#   vehicles <list>, starships <list>

We can also use selection helpers to select variables that start (starts_with()), end (ends_with()), or contain (contains()) a given string.

Here we select variables that:

Contain “color”

End with the character “s”

select(starwars, contains("color"), ends_with("s"))

# A tibble: 87 × 8
   hair_color    skin_color  eye_color  mass species films  vehicles  starships
   <chr>         <chr>       <chr>     <dbl> <chr>   <list> <list>    <list>   
 1 blond         fair        blue         77 Human   <chr>  <chr [2]> <chr [2]>
 2 NA            gold        yellow       75 Droid   <chr>  <chr [0]> <chr [0]>
 3 NA            white, blue red          32 Droid   <chr>  <chr [0]> <chr [0]>
 4 none          white       yellow      136 Human   <chr>  <chr [0]> <chr [1]>
 5 brown         light       brown        49 Human   <chr>  <chr [1]> <chr [0]>
 6 brown, grey   light       blue        120 Human   <chr>  <chr [0]> <chr [0]>
 7 brown         light       blue         75 Human   <chr>  <chr [0]> <chr [0]>
 8 NA            white, red  red          32 Droid   <chr>  <chr [0]> <chr [0]>
 9 black         light       brown        84 Human   <chr>  <chr [0]> <chr [1]>
10 auburn, white fair        blue-gray    77 Human   <chr>  <chr [1]> <chr [5]>
# ℹ 77 more rows
…
Use pull() to extract the values for mass, and calculate the average (via mean()). Note: you may have to set na.rm=TRUE, as some observations are missing.

Use pull() to extract the eye colours. How many different categories for eye colour are there?

mutate()#

The mutate() function allows us to edit columns and add new columns in dataframes.

Editing Existing Columns#

Suppose we want to convert all values in the name column to be lowercase. We can do this like so, with the tolower() function:

mutate(starwars, name=tolower(name))

# A tibble: 87 × 14
   name     height  mass hair_color skin_color eye_color birth_year sex   gender
   <chr>     <int> <dbl> <chr>      <chr>      <chr>          <dbl> <chr> <chr> 
 1 luke sk…    172    77 blond      fair       blue            19   male  mascu…
 2 c-3po       167    75 NA         gold       yellow         112   none  mascu…
 3 r2-d2        96    32 NA         white, bl… red             33   none  mascu…
 4 darth v…    202   136 none       white      yellow          41.9 male  mascu…
 5 leia or…    150    49 brown      light      brown           19   fema… femin…
 6 owen la…    178   120 brown, gr… light      blue            52   male  mascu…
 7 beru wh…    165    75 brown      light      blue            47   fema… femin…
 8 r5-d4        97    32 NA         white, red red             NA   none  mascu…
 9 biggs d…    183    84 black      light      brown           24   male  mascu…
10 obi-wan…    182    77 auburn, w… fair       blue-gray       57   male  mascu…
# ℹ 77 more rows
# ℹ 5 more variables: homeworld <chr>, species <chr>, films <list>,
#   vehicles <list>, starships <list>
…
