Data Wrangling 2 — ExPra Winter 2025
…
Pipes#

The pipe operator looks like this: |>. It takes the output of one function, and “pipes” it into the first argument of the next function.

But why would such a thing be useful? Well, here’s some example code to hopefully demonstrate…

data_1 <- starwars
data_2 <- filter(data_1, homeworld != "Alderaan")
data_3 <- mutate(data_2, height_inches = height/2.54)
data_4 <- select(data_3, name, height, height_inches)
data_5 <- arrange(data_4, height)

data_5

# A tibble: 74 × 3
   name                  height height_inches
   <chr>                  <int>         <dbl>
 1 Ratts Tyerel              79          31.1
 2 Wicket Systri Warrick     88          34.6
 3 Dud Bolt                  94          37.0
 4 R2-D2                     96          37.8
 5 R5-D4                     97          38.2
 6 Sebulba                  112          44.1
 7 Gasgano                  122          48.0
 8 Watto                    137          53.9
 9 Mon Mothma               150          59.1
10 Cordé                    157          61.8
# ℹ 64 more rows
…
Wide and Long data formats are simply different ways of representing the data. It is often useful to switch between long and wide data formats. For example, long data format can make data visualisations easier with ggplot2 (see Data Visualisation session), or can make it easier to calculate difference scores.

The tidyr package has two very handy functions for switching between wide and long data formats: pivot_wider() and pivot_longer().

pivot_wider()#

The pivot_wider() function lets us switch from long to wide data formats. As an example, let’s start with a summary of heights in the starwars dataset, split by sex and species.

sex_summ <- starwars |>
    group_by(sex, species) |>
    summarise(avg_height = mean(height, na.rm=TRUE))

sex_summ

# A tibble: 41 × 3
# Groups:   sex [5]
   sex            species    avg_height
   <chr>          <chr>           <dbl>
 1 female         Clawdite         168 
 2 female         Human            164.
 3 female         Kaminoan         213 
 4 female         Mirialan         168 
 5 female         Tholothian       184 
 6 female         Togruta          178 
 7 female         Twi'lek          178 
 8 hermaphroditic Hutt             175 
 9 male           Aleena            79 
10 male           Besalisk         198 
# ℹ 31 more rows

We can reformat this to a wider format, with the average heights for each sex in separate columns. This will result in one species per row of the dataframe. There are two main parameters that we need to provide to pivot_wider(). These are names_from (where the new column names should come from) and values_from (where the new columns’ values should come from).

pivot_wider(sex_summ, names_from=sex, values_from=avg_height)

# A tibble: 38 × 6
   species    female hermaphroditic  male  none  `NA`
   <chr>       <dbl>          <dbl> <dbl> <dbl> <dbl>
 1 Clawdite     168              NA   NA     NA    NA
 2 Human        164.             NA  182.    NA    NA
 3 Kaminoan     213              NA  229     NA    NA
 4 Mirialan     168              NA   NA     NA    NA
 5 Tholothian   184              NA   NA     NA    NA
 6 Togruta      178              NA   NA     NA    NA
 7 Twi'lek      178              NA  180     NA    NA
 8 Hutt          NA             175   NA     NA    NA
 9 Aleena        NA              NA   79     NA    NA
10 Besalisk      NA              NA  198     NA    NA
# ℹ 28 more rows
…
