Analysis — ExPra Winter 2025
…
3: Import the Stimuli#

Next we import the list of stimuli:

stim <- read_csv("demo_stimuli.csv")

stim

# A tibble: 300 × 8
   item_nr condition text  corr_ans is_practice_trial   snd ZipfSUBTLEX word_len
     <dbl> <chr>     <chr> <chr>    <lgl>             <dbl>       <dbl>    <dbl>
 1       1 word      Akze… ralt     FALSE             0.716        2.71        7
 2       1 pseudowo… Unwa… lalt     FALSE             0.534       NA           7
 3       2 word      Drüc… ralt     FALSE             0.573        3.01        7
 4       2 pseudowo… quok… lalt     FALSE             0.551       NA           7
 5       3 word      Erwa… ralt     FALSE             0.681        3.95       11
 6       3 pseudowo… Exzi… lalt     FALSE             0.532       NA          11
 7       4 word      Exor… ralt     FALSE             0.624        2.64       10
 8       4 pseudowo… ucin… lalt     FALSE             0.417       NA          10
 9       5 word      Fabel ralt     FALSE             0.634        2.6         5
10       5 pseudowo… Pafel lalt     FALSE             0.552       NA           5
# ℹ 290 more rows
…
4: Import the Raw Data#

Let’s import the experiment data from the data folder:

# first, get a list of all .csv data files
data_paths <- list.files("data", pattern=".*\\.csv$", full.names=TRUE)

# now, iterate over these with `read_csv()` to import each
raw_data <- map_df(data_paths, read_csv)

# print the contents
raw_data

# A tibble: 2,480 × 8
   participant_id item_nr condition  text     is_practice_trial resp  rt_ms
   <chr>            <dbl> <chr>      <chr>    <lgl>             <chr> <dbl>
 1 p171220              4 pseudoword segt     TRUE              lalt   887.
 2 p171220              4 word       sagt     TRUE              ralt   683.
 3 p171220              5 pseudoword tobreren TRUE              lalt   751.
 4 p171220              1 pseudoword Bage     TRUE              lalt   530.
 5 p171220              3 pseudoword Torrerk  TRUE              lalt   551.
 6 p171220              3 word       korrekt  TRUE              ralt   489.
 7 p171220              2 pseudoword sanzes   TRUE              lalt   456.
 8 p171220              2 word       Mannes   TRUE              lalt   565.
 9 p171220              1 word       Haie     TRUE              ralt   633.
10 p171220              5 word       sicheren TRUE              ralt   589.
# ℹ 2,470 more rows
# ℹ 1 more variable: time_so_far_secs <dbl>
…
The easiest way to work with small datasets like this is to just join the dataframes together. This will create some redundancy (e.g., participant ages will be repeated 300 times), but can make things easier to work with.

Here we use left_join() to find add information about participant demographics and features of the stimuli. This identifies rows that the dataframes have in common, and joins them togeher. Notice that we now have one big dataframe with all of the information about every trial.

all_dat <- raw_data |>
  left_join(demog) |>
  left_join(stim)

Joining with `by = join_by(participant_id)`

Joining with `by = join_by(item_nr, condition, text, is_practice_trial)`

all_dat

# A tibble: 2,480 × 18
   participant_id item_nr condition  text     is_practice_trial resp  rt_ms
   <chr>            <dbl> <chr>      <chr>    <lgl>             <chr> <dbl>
 1 p171220              4 pseudoword segt     TRUE              lalt   887.
 2 p171220              4 word       sagt     TRUE              ralt   683.
 3 p171220              5 pseudoword tobreren TRUE              lalt   751.
 4 p171220              1 pseudoword Bage     TRUE              lalt   530.
 5 p171220              3 pseudoword Torrerk  TRUE              lalt   551.
 6 p171220              3 word       korrekt  TRUE              ralt   489.
 7 p171220              2 pseudoword sanzes   TRUE              lalt   456.
 8 p171220              2 word       Mannes   TRUE              lalt   565.
 9 p171220              1 word       Haie     TRUE              ralt   633.
10 p171220              5 word       sicheren TRUE              ralt   589.
# ℹ 2,470 more rows
# ℹ 11 more variables: time_so_far_secs <dbl>, age <dbl>, gender <chr>,
#   dominant_hand <chr>, first_language <chr>, frame_rate_Hz <dbl>,
#   total_time_secs <dbl>, corr_ans <chr>, snd <dbl>, ZipfSUBTLEX <dbl>,
#   word_len <dbl>
…
Here, we calculate the average RT and accuracy for each word. We also make sure that the Zipf values are brought through by including them in the group_by() function.

word_averages <- trials_clean |>
  filter(condition == "word") |>
  group_by(text, ZipfSUBTLEX) |>
  summarise(
    median_rt = median(rt_ms),
    mean_acc = mean(accuracy)
  ) |>
  ungroup()

word_averages

# A tibble: 150 × 4
   text        ZipfSUBTLEX median_rt mean_acc
   <chr>             <dbl>     <dbl>    <dbl>
 1 Akzente            2.71      628.        1
 2 Drücker            3.01      599.        1
 3 Erwachsener        3.95      636.        1
 4 Exorzisten         2.64      745.        1
 5 Fabel              2.6       641.        1
 6 Faulpelze          2.74      603.        1
 7 Figuren            4.38      525.        1
 8 Filigrane          1.9       971.        1
 9 Geschicke          2.07      717.        1
10 Gondel             3.11      698.        1
# ℹ 140 more rows
…
SND is a continuous variable, so we will mean-centre it (snd_cent). (We could also scale it if we wanted stardised coefficients.)

Lexicality is a categorical variable, which we will deviation-code (dev_lex). If we had perfectly equal numbers of words and pseudowords in the data, we could just set this to -0.5 and 0.5. However, since we might have unequal numbers, to make sure that the variable is centred on zero, we first dummy code to 0 and 1, and then mean-centre it. As we happen to have equal numbers of stimuli, the values end up being -0.5 and 0.5 anyway.

stim_averages <- stim_averages |>
  mutate(
    snd_cent = snd - mean(snd),
    dum_lex = ifelse(condition == "word", 1, 0),
    dev_lex = dum_lex - mean(dum_lex)
  )

stim_averages

# A tibble: 300 × 8
   text         condition    snd median_rt mean_acc snd_cent dum_lex dev_lex
   <chr>        <chr>      <dbl>     <dbl>    <dbl>    <dbl>   <dbl>   <dbl>
 1 Abgegöbe     pseudoword 0.614      942.        1   0.0104       0    -0.5
 2 Akzente      word       0.716      628.        1   0.113        1     0.5
 3 Austerbafer  pseudoword 0.616      700.        1   0.0129       0    -0.5
 4 Bünktchen    pseudoword 0.585      761.        1  -0.0180       0    -0.5
 5 Cermelen     pseudoword 0.548      767.        1  -0.0556       0    -0.5
 6 Drücker      word       0.573      599.        1  -0.0303       1     0.5
 7 Durchszelten pseudoword 0.567     2088.        1  -0.0362       0    -0.5
 8 Erwachsener  word       0.681      636.        1   0.0776       1     0.5
 9 Exorzisten   word       0.624      745.        1   0.0201       1     0.5
10 Exzingsener  pseudoword 0.532      922.        1  -0.0709       0    -0.5
# ℹ 290 more rows
…
